#RUN_DIR	ID	SID	ASSEMBLY	PLATFORM	HOST
181217_NB501801_0165_AHTL5KBGX7	AAGAGGCA_ATGTCAAT	1116109G	1116109G	nextseq	human
181217_NB501801_0165_AHTL5KBGX7	AAGAGGCA_TCAATGAC	1422106G	1422106G	nextseq human
181217_NB501801_0165_AHTL5KBGX7	ACCGATCG_TATGCAGT	1401101G	1401101G	nextseq human
181217_NB501801_0165_AHTL5KBGX7	AGGCAGAA_CGTCTATA	PS.051.m11	PS.051.m11	nextseq human
181217_NB501801_0165_AHTL5KBGX7	AGGCAGAA_TACTCCTT	PS.146.m6	PS.146.m6	nextseq human
181217_NB501801_0165_AHTL5KBGX7	AGGCAGAA_TTAACCGA	PS.148.m13	PS.148.m13	nextseq human
181217_NB501801_0165_AHTL5KBGX7	ATTGTAAT_ACCTAGTA	1413105G	1413105G	nextseq human
181217_NB501801_0165_AHTL5KBGX7	ATTGTAAT_AGAGGATA	PS.038.m14	PS.038.m14	nextseq human
181217_NB501801_0165_AHTL5KBGX7	ATTGTAAT_TCTACTCT	PS.129.m14	PS.129.m14	nextseq human
